{"content":[{"id":1,"name":"User_1","dob":977682600000},{"id":2,"name":"User_2","dob":1009218600000},{"id":3,"name":"User_3","dob":1040754600000},{"id":4,"name":"User_4","dob":1072290600000},{"id":5,"name":"User_5","dob":1103913000000}],"last":false,"totalElements":31,"totalPages":7,"size":5,"number":1,"sort":null,"first":false,"numberOfElements":5}